module gitlab.com/dkr-registrator/bridge

go 1.20

require (
	github.com/cenkalti/backoff v2.2.1+incompatible
	github.com/docker/docker v25.0.3+incompatible
	github.com/docker/go-connections v0.5.0
	github.com/stretchr/testify v1.8.4
)

require (
	github.com/Microsoft/go-winio v0.6.1 // indirect
	github.com/containerd/log v0.1.0 // indirect
	github.com/davecgh/go-spew v1.1.1 // indirect
	github.com/distribution/reference v0.5.0 // indirect
	github.com/docker/go-units v0.5.0 // indirect
	github.com/felixge/httpsnoop v1.0.4 // indirect
	github.com/go-logr/logr v1.4.1 // indirect
	github.com/go-logr/stdr v1.2.2 // indirect
	github.com/gogo/protobuf v1.3.2 // indirect
	github.com/moby/term v0.5.0 // indirect
	github.com/morikuni/aec v1.0.0 // indirect
	github.com/opencontainers/go-digest v1.0.0 // indirect
	github.com/opencontainers/image-spec v1.1.0 // indirect
	github.com/pkg/errors v0.9.1 // indirect
	github.com/pmezard/go-difflib v1.0.0 // indirect
	go.opentelemetry.io/contrib/instrumentation/net/http/otelhttp v0.48.0 // indirect
	go.opentelemetry.io/otel v1.23.1 // indirect
	go.opentelemetry.io/otel/exporters/otlp/otlptrace/otlptracehttp v1.23.1 // indirect
	go.opentelemetry.io/otel/metric v1.23.1 // indirect
	go.opentelemetry.io/otel/sdk v1.23.1 // indirect
	go.opentelemetry.io/otel/trace v1.23.1 // indirect
	golang.org/x/mod v0.15.0 // indirect
	golang.org/x/sys v0.17.0 // indirect
	golang.org/x/time v0.3.0 // indirect
	golang.org/x/tools v0.18.0 // indirect
	gopkg.in/yaml.v3 v3.0.1 // indirect
	gotest.tools/v3 v3.4.0 // indirect
)
